date	size'/'remotesize	flags(request:Update,Range state:File response:Modified,Chunked,gZipped)	statuscode	status ('servermsg')	MIME	Etag|Date	URL	localfile	(from URL)
10:38:40	2552/2552	---M-Z	200	added ('OK')	text/html	etag:%22620-57cd4911c1140-gzip%22	https://us.pg.com/	D:/Job/httrack/p&g/us.pg.com/index.html	(from )
10:38:43	170/170	---M-Z	200	added ('OK')	text/plain	etag:%2236-57cd48bbec6c0%22	https://us.pg.com/robots.txt		(from )
10:38:44	1182/1182	---M--	200	added ('OK')	image/png	etag:%2249e-57cd490fd8cc0%22	https://us.pg.com/assets/favicons/favicon-16x16.png	D:/Job/httrack/p&g/us.pg.com/assets/favicons/favicon-16x16.png	(from https://us.pg.com/)
10:38:48	151205/151205	---M-Z	200	added ('OK')	text/css	etag:%2224ea5-57cd4911c1140-gzip%22	https://us.pg.com/main.83df21e2.css	D:/Job/httrack/p&g/us.pg.com/main.83df21e2.css	(from https://us.pg.com/)
10:38:49	415479/415479	---M-Z	200	added ('OK')	text/javascript	etag:%225b184de1-1af7c%22	http://s.swiftypecdn.com/install/v2/st.js	D:/Job/httrack/p&g/s.swiftypecdn.com/install/v2/st.js	(from https://us.pg.com/)
10:38:50	1555/1555	---M--	400	error ('Bad%20Request')	text/html	date:Fri,%2021%20Dec%202018%2003:38:51%20GMT	https://www.googletagmanager.com/gtm.js?id=	D:/Job/httrack/p&g/www.googletagmanager.com/gtm.35445.delayed	(from https://us.pg.com/)
10:39:02	1404478/1404478	---MCZ	200	added ('OK')	application/javascript	etag:%22156e3d-57cd4911c1140-gzip%22	https://us.pg.com/main.a0b3f718.js	D:/Job/httrack/p&g/us.pg.com/main.a0b3f718.js	(from https://us.pg.com/)
